[
  {
    "Identifcation_code": ["123"],
    "Name": "Researcher",
    "Course":"Web Development",
    "Learning_outcomes": ["LO1", "LO2"],
    "Exit_awards":["Duel award - 80credits"],
    "Identifcation_code_mod": ["123232"],
    "Module": ["UX design"],
      "Learning_outcomes_mod":["LO1", "LO2"],
      "Num_of_hours":["32"],
      "Num_of_credits":["20"],
      "Timeslot":["Thursday 10:00am"],
      "Number": ["1", "2"],
      "Assignment":["CW1", "CW2"],
      "Learning_outcomes_a":["LO1", "LO2"],
      "Title": ["Algorithms", "Binary"],
      "Volume":["1500 words", "3500 words"],
      "weights":["30%", "70%"],
      "Submission_date": ["01/08/2021", "23/02/2022"]
  },
    {
      "Identifcation_code": ["432"],
      "Name": "Researcher",
      "Course":"History",
      "Learning_outcomes": ["LO1", "LO2"],
      "Exit_awards":["Duel award - 120credits"],
      "Identifcation_code_mod": ["312325"],
      "Module": ["WW2"],
        "Learning_outcomes_mod":["LO1", "LO2"],
        "Num_of_hours":["32"],
        "Num_of_credits":["20"],
        "Timeslot":["Wednesday 2:00pm"],
        "Number": ["1", "2"],
        "Assignment":["CW1", "CW2"],
        "Learning_outcomes_a":["LO1", "LO2"],
        "Title": ["War", "Conflict"],
        "Volume":["1000 words", "4000 words"],
        "weights":["20%", "80%"],
        "Submission_date": ["08/07/2021", "23/07/2022"]
    },
      {
        "Identifcation_code": ["175"],
        "Name": "Researcher",
        "Course":"Education",
        "Learning_outcomes": ["LO1", "LO2"],
        "Exit_awards":["Duel award - 140credits"],
        "Identifcation_code_mod": ["324342"],
        "Module": ["Understanding the Curriculm"],
          "Learning_outcomes_mod":["LO1", "LO2"],
          "Num_of_hours":["32"],
          "Num_of_credits":["20"],
          "Timeslot":["Friday 9:00am"],
          "Number": ["1", "2"],
          "Assignment":["CW1", "CW2"],
          "Learning_outcomes_a":["LO1", "LO2"],
          "Title": ["Learning", "National Curriculum"],
          "Volume":["1200 words", "5000 words"],
          "weights":["10%", "90%"],
          "Submission_date": ["01/05/2021", "23/07/2022"]
      }
]